[gd_scene load_steps=4 format=2]

[ext_resource path="res://plugins/minigames/bowling/ball.gd" type="Script" id=1]



[sub_resource type="SphereMesh" id=1]

custom_aabb = AABB( 0, 0, 0, 0, 0, 0 )
radius = 0.25
height = 0.5
radial_segments = 64
rings = 32
is_hemisphere = false

[sub_resource type="SphereShape" id=2]

radius = 0.25

[node name="Area" type="KinematicBody" index="0"]

input_ray_pickable = true
input_capture_on_drag = false
collision_layer = 4
collision_mask = 2
axis_lock_linear_x = false
axis_lock_linear_y = false
axis_lock_linear_z = false
axis_lock_angular_x = false
axis_lock_angular_y = false
axis_lock_angular_z = false
collision/safe_margin = 0.001
script = ExtResource( 1 )
_sections_unfolded = [ "Collision" ]

[node name="MeshInstance" type="MeshInstance" parent="." index="0"]

layers = 1
material_override = null
cast_shadow = 1
extra_cull_margin = 0.0
use_in_baked_light = false
lod_min_distance = 0.0
lod_min_hysteresis = 0.0
lod_max_distance = 0.0
lod_max_hysteresis = 0.0
mesh = SubResource( 1 )
skeleton = NodePath("..")
material/0 = null

[node name="CollisionShape" type="CollisionShape" parent="." index="1"]

shape = SubResource( 2 )
disabled = false


