[gd_scene load_steps=3 format=2]

[ext_resource path="res://assets/icons/heart_grayscale.png" type="Texture" id=1]
[ext_resource path="res://assets/icons/heart.png" type="Texture" id=2]

[node name="Player1ScoreIcon" type="TextureProgress" index="0"]

anchor_left = 0.0
anchor_top = 0.0
anchor_right = 0.0
anchor_bottom = 0.0
margin_right = 32.0
margin_bottom = 32.0
rect_pivot_offset = Vector2( 0, 0 )
rect_clip_content = false
mouse_filter = 1
mouse_default_cursor_shape = 0
size_flags_horizontal = 1
size_flags_vertical = 1
min_value = 0.0
max_value = 1.0
step = 1.0
page = 0.0
value = 1.0
exp_edit = true
rounded = false
texture_under = ExtResource( 1 )
texture_over = null
texture_progress = ExtResource( 2 )
radial_fill_degrees = 360.0
radial_center_offset = Vector2( 0, 0 )
nine_patch_stretch = false
_sections_unfolded = [ "Region", "Textures" ]


